[Bootstrap]
SetupTitle=Instalar
SetupText=Copiando archivos, espere.
CabFile=CAFEURO.CAB
Spawn=Setup1.exe
Uninstal=st6unst.exe
TmpDir=msftqws.pdw
Cabs=1

[Bootstrap Files]
File1=@VB6STKIT.DLL,$(WinSysPathSysFile),,,7-28-98 12:00:00 AM,102912,6.0.81.69
File2=@COMCAT.DLL,$(WinSysPathSysFile),$(DLLSelfRegister),,6-1-98 12:00:00 AM,22288,4.71.1460.1
File3=@ASYCFILT.DLL,$(WinSysPathSysFile),,,6-8-00 5:00:00 PM,143632,2.40.4515.0
File4=@OLEPRO32.DLL,$(WinSysPathSysFile),$(DLLSelfRegister),,6-8-00 5:00:00 PM,164112,5.0.4515.0
File5=@OLEAUT32.DLL,$(WinSysPathSysFile),$(DLLSelfRegister),,6-8-00 5:00:00 PM,614672,2.40.4515.0
File6=@STDOLE2.TLB,$(WinSysPathSysFile),$(TLBRegister),,6-8-00 5:00:00 PM,16896,2.40.4515.0
File7=@MSVBVM60.DLL,$(WinSysPathSysFile),$(DLLSelfRegister),,6-8-00 5:00:00 PM,1384448,6.0.84.95
File8=@VB6ES.DLL,$(WinSysPath),,$(Shared),7-28-98 12:00:00 AM,119568,5.0.81.69

[IconGroups]
Group0=Cafeuro
PrivateGroup0=Verdadero
Parent0=$(Programs)

[Cafeuro]
Icon1="CAFEURO.exe"
Title1=Cafeuro
StartIn1=$(AppPath)

[Setup]
Title=Cafeuro
DefaultDir=$(ProgramFiles)\Project1
AppExe=CAFEURO.exe
AppToUninstall=CAFEURO.exe

[Setup1 Files]
File1=@STDFTES.DLL,$(WinSysPath),,$(Shared),7-31-98 12:00:00 AM,6656,6.0.81.63
File2=@MSSTDFMT.DLL,$(WinSysPath),$(DLLSelfRegister),$(Shared),3-26-99 12:00:00 AM,118784,6.0.84.50
File3=@MSBIND.DLL,$(WinSysPath),$(DLLSelfRegister),$(Shared),3-26-99 12:00:00 AM,77824,6.0.84.50
File4=@MSADO20.TLB,$(WinSysPath),$(DLLSelfRegister),$(Shared),6-8-00 5:00:00 PM,61440,2.50.4403.4
File5=@MSHFGES.DLL,$(WinSysPath),,$(Shared),7-23-98 12:00:00 AM,50176,6.0.30.5
File6=@MSHFLXGD.OCX,$(WinSysPath),$(DLLSelfRegister),$(Shared),5-7-99 12:00:00 AM,438800,6.0.84.18
File7=@ADODCES.DLL,$(WinSysPath),,$(Shared),7-28-98 12:00:00 AM,15872,6.0.81.63
File8=@MSADODC.OCX,$(WinSysPath),$(DLLSelfRegister),$(Shared),8-19-02 9:11:00 PM,118248,6.0.84.18
File9=@CMCT3ES.DLL,$(WinSysPath),$(DLLSelfRegister),$(Shared),7-28-98 12:00:00 AM,28672,6.0.0.8163
File10=@COMCT332.OCX,$(WinSysPath),$(DLLSelfRegister),$(Shared),6-24-98 12:00:00 AM,369696,6.0.0.8169
File11=@DATLSES.DLL,$(WinSysPath),,$(Shared),7-28-98 12:00:00 AM,30208,6.0.81.63
File12=@MSDATLST.OCX,$(WinSysPath),$(DLLSelfRegister),$(Shared),5-7-99 12:00:00 AM,232456,6.0.84.18
File13=@DATGDES.DLL,$(WinSysPath),,$(Shared),7-28-98 12:00:00 AM,30208,6.0.81.63
File14=@MSDATGRD.OCX,$(WinSysPath),$(DLLSelfRegister),$(Shared),5-7-99 12:00:00 AM,262152,6.0.84.18
File15=@MSMSKES.DLL,$(WinSysPath),,$(Shared),7-28-98 12:00:00 AM,20480,6.0.81.63
File16=@MSMASK32.OCX,$(WinSysPath),$(DLLSelfRegister),$(Shared),6-24-98 12:00:00 AM,166200,6.0.81.69
File17=@MSCOMES.DLL,$(WinSysPath),,$(Shared),7-28-98 12:00:00 AM,14336,6.0.81.63
File18=@MSCOMM32.OCX,$(WinSysPath),$(DLLSelfRegister),$(Shared),6-24-98 12:00:00 AM,103744,6.0.81.69
File19=@SYSINES.DLL,$(WinSysPath),,$(Shared),7-28-98 12:00:00 AM,10240,6.0.81.63
File20=@SYSINFO.OCX,$(WinSysPath),$(DLLSelfRegister),$(Shared),6-24-98 12:00:00 AM,67376,6.0.81.69
File21=@PCCLPES.DLL,$(WinSysPath),,$(Shared),7-28-98 12:00:00 AM,9728,6.0.81.63
File22=@PICCLP32.OCX,$(WinSysPath),$(DLLSelfRegister),$(Shared),6-24-98 12:00:00 AM,82744,6.0.81.69
File23=@MCIES.DLL,$(WinSysPath),,$(Shared),7-28-98 12:00:00 AM,32256,6.0.81.63
File24=@MCI32.OCX,$(WinSysPath),$(DLLSelfRegister),$(Shared),6-24-98 12:00:00 AM,198456,6.0.81.69
File25=@MSMPIES.DLL,$(WinSysPath),,$(Shared),7-28-98 12:00:00 AM,23040,6.0.81.63
File26=@MSMAPI32.OCX,$(WinSysPath),$(DLLSelfRegister),$(Shared),6-24-98 12:00:00 AM,137000,6.0.81.69
File27=@MSWINSCK.OCX,$(WinSysPath),$(DLLSelfRegister),$(Shared),6-24-98 12:00:00 AM,108336,6.0.81.69
File28=@MSCH2ES.DLL,$(WinSysPath),,$(Shared),7-28-98 12:00:00 AM,108032,6.0.81.63
File29=@MSCHRT20.OCX,$(WinSysPath),$(DLLSelfRegister),$(Shared),6-26-98 12:00:00 AM,1008432,6.0.81.77
File30=@INETES.DLL,$(WinSysPath),,$(Shared),7-28-98 12:00:00 AM,15872,6.0.81.63
File31=@MSINET.OCX,$(WinSysPath),$(DLLSelfRegister),$(Shared),6-24-98 12:00:00 AM,115016,6.0.81.69
File32=@MSCC2ES.DLL,$(WinSysPath),,$(Shared),7-28-98 12:00:00 AM,60928,6.0.81.63
File33=@MSCOMCT2.OCX,$(WinSysPath),$(DLLSelfRegister),$(Shared),5-7-99 12:00:00 AM,645616,6.0.84.18
File34=@MSCMCES.DLL,$(WinSysPath),,$(Shared),7-28-98 12:00:00 AM,140800,6.0.81.63
File35=@MSCOMCTL.OCX,$(WinSysPath),$(DLLSelfRegister),$(Shared),5-13-99 12:00:00 AM,1064456,6.0.84.98
File36=@CMDLGES.DLL,$(WinSysPath),,$(Shared),7-28-98 12:00:00 AM,33280,6.0.81.63
File37=@COMDLG32.OCX,$(WinSysPath),$(DLLSelfRegister),$(Shared),5-7-99 12:00:00 AM,140288,6.0.84.18
File38=@FLXGDES.DLL,$(WinSysPath),,$(Shared),7-28-98 12:00:00 AM,40448,6.0.81.63
File39=@MSFLXGRD.OCX,$(WinSysPath),$(DLLSelfRegister),$(Shared),5-7-99 12:00:00 AM,244232,6.0.84.18
File40=@TABCTES.DLL,$(WinSysPath),,$(Shared),7-28-98 12:00:00 AM,21504,6.0.81.63
File41=@TABCTL32.OCX,$(WinSysPath),$(DLLSelfRegister),$(Shared),5-7-99 12:00:00 AM,209408,6.0.84.18
File42=@CAFEURO.exe,$(AppPath),,,9-17-02 7:04:18 PM,53248,1.0.0.0

; Puede eliminar las siguientes líneas para obtener espacio adicional 
; con el fin de personalizar este archivo en un disco de instalación completa.
; 
; XXXXXXXXXXXXXXXXXXXXXXXXXXXXXXXXXXXXXXXXXXXXXXXXXXXXXXXXXXXX
; XXXXXXXXXXXXXXXXXXXXXXXXXXXXXXXXXXXXXXXXXXXXXXXXXXXXXXXXXXXX
; XXXXXXXXXXXXXXXXXXXXXXXXXXXXXXXXXXXXXXXXXXXXXXXXXXXXXXXXXXXX
; XXXXXXXXXXXXXXXXXXXXXXXXXXXXXXXXXXXXXXXXXXXXXXXXXXXXXXXXXXXX
; XXXXXXXXXXXXXXXXXXXXXXXXXXXXXXXXXXXXXXXXXXXXXXXXXXXXXXXXXXXX
; XXXXXXXXXXXXXXXXXXXXXXXXXXXXXXXXXXXXXXXXXXXXXXXXXXXXXXXXXXXX
; XXXXXXXXXXXXXXXXXXXXXXXXXXXXXXXXXXXXXXXXXXXXXXXXXXXXXXXXXXXX
; XXXXXXXXXXXXXXXXXXXXXXXXXXXXXXXXXXXXXXXXXXXXXXXXXXXXXXXXXXXX
; XXXXXXXXXXXXXXXXXXXXXXXXXXXXXXXXXXXXXXXXXXXXXXXXXXXXXXXXXXXX
; XXXXXXXXXXXXXXXXXXXXXXXXXXXXXXXXXXXXXXXXXXXXXXXXXXXXXXXXXXXX
; XXXXXXXXXXXXXXXXXXXXXXXXXXXXXXXXXXXXXXXXXXXXXXXXXXXXXXXXXXXX
; XXXXXXXXXXXXXXXXXXXXXXXXXXXXXXXXXXXXXXXXXXXXXXXXXXXXXXXXXXXX
; XXXXXXXXXXXXXXXXXXXXXXXXXXXXXXXXXXXXXXXXXXXXXXXXXXXXXXXXXXXX
; XXXXXXXXXXXXXXXXXXXXXXXXXXXXXXXXXXXXXXXXXXXXXXXXXXXXXXXXXXXX
; XXXXXXXXXXXXXXXXXXXXXXXXXXXXXXXXXXXXXXXXXXXXXXXXXXXXXXXXXXXX
; XXXXXXXXXXXXXXXXXXXXXXXXXXXXXXXXXXXXXXXXXXXXXXXXXXXXXXXXXXXX
; XXXXXXXXXXXXXXXXXXXXXXXXXXXXXXXXXXXXXXXXXXXXXXXXXXXXXXXXXXXX
; XXXXXXXXXXXXXXXXXXXXXXXXXXXXXXXXXXXXXXXXXXXXXXXXXXXXXXXXXXXX
; XXXXXXXXXXXXXXXXXXXXXXXXXXXXXXXXXXXXXXXXXXXXXXXXXXXXXXXXXXXX
; XXXXXXXXXXXXXXXXXXXXXXXXXXXXXXXXXXXXXXXXXXXXXXXXXXXXXXXXXXXX
; XXXXXXXXXXXXXXXXXXXXXXXXXXXXXXXXXXXXXXXXXXXXXXXXXXXXXXXXXXXX
; XXXXXXXXXXXXXXXXXXXXXXXXXXXXXXXXXXXXXXXXXXXXXXXXXXXXXXXXXXXX
; XXXXXXXXXXXXXXXXXXXXXXXXXXXXXXXXXXXXXXXXXXXXXXXXXXXXXXXXXXXX
; XXXXXXXXXXXXXXXXXXXXXXXXXXXXXXXXXXXXXXXXXXXXXXXXXXXXXXXXXXXX
; XXXXXXXXXXXXXXXXXXXXXXXXXXXXXXXXXXXXXXXXXXXXXXXXXXXXXXXXXXXX
; XXXXXXXXXXXXXXXXXXXXXXXXXXXXXXXXXXXXXXXXXXXXXXXXXXXXXXXXXXXX
; XXXXXXXXXXXXXXXXXXXXXXXXXXXXXXXXXXXXXXXXXXXXXXXXXXXXXXXXXXXX
; XXXXXXXXXXXXXXXXXXXXXXXXXXXXXXXXXXXXXXXXXXXXXXXXXXXXXXXXXXXX
; XXXXXXXXXXXXXXXXXXXXXXXXXXXXXXXXXXXXXXXXXXXXXXXXXXXXXXXXXXXX
; XXXXXXXXXXXXXXXXXXXXXXXXXXXXXXXXXXXXXXXXXXXXXXXXXXXXXXXXXXXX
; XXXXXXXXXXXXXXXXXXXXXXXXXXXXXXXXXXXXXXXXXXXXXXXXXXXXXXXXXXXX
; XXXXXXXXXXXXXXXXXXXXXXXXXXXXXXXXXXXXXXXXXXXXXXXXXXXXXXXXXXXX
; XXXXXXXXXXXXXXXXXXXXXXXXXXXXXXXXXXXXXXXXXXXXXXXXXXXXXXXXXXXX
; XXXXXXXXXXXXXXXXXXXXXXXXXXXXXXXXXXXXXXXXXXXXXXXXXXXXXXXXXXXX
; XXXXXXXXXXXXXXXXXXXXXXXXXXXXXXXXXXXXXXXXXXXXXXXXXXXXXXXXXXXX
