44370     -8 -
44373     -9 -
44377     -N  
44381     -N  
44368     -8 -
44382     -8 -
44384     -9 -
44372     -8 -
44379     -2 -
44378     -8 -
44389     -9 -
44383     -11 
44390     -2 -
44367     -N  
44391     -8 -
44386     -8 -
44393     -8 -
44375     -8 -
44394     -11 
44392     -8 -
44376     -2 -
44396     -8 -
44397     -8 -
44399     -8 -
44406     -8 -
44400     -8 -
44402     -2 -
44398     -8 -
44387     -N  
44388     -2 -
44415     -8 -
44412     -11 
44403     -2 -
44420     -9 -
44405     -2 -
44385     -2 -
44421     -2 -
44417     -8 -
44410     -12 
44419     -2 -
44416     -11 
44414     -8 -
44424     -2 -
44401     -8 -
44418     -8 -
44427     -8 -
44413     -N  
44425     -8 -
44436     -9 -
44428     -9 -
44432     -8 -
44434     -8 -
44430     -8 -
44422     -11 
44429     -8 -
44423     -2 -
44426     -11 
44439     -2 -
44431     -2 -
44404     -2 -
44442     -2 -
44440     -9 -
44443     -9 -
44441     -2 -
44433     -2 -
44437     -11 
44437     -11 
44450     -2 -
44408     -8 -
44446     -8 -
44438     -2 -
44451     -9 -
44445     -11 
44456     -9 -
44444     -8 -
44409     -8 -
44448     -8 -
44435     -8 -
44447     -11 
44449     -2 -
44462     -9 -
44454     -8 -
44466     -9 -
44452     -11 
44463     -8 -
44457     -2 -
44453     -2 -
44460     -8 -
44459     -11 
44470     -8 -
44476     -8 -
44469     -8 -
44465     -8 -
44474     -8 -
44474     -8 -
44472     -8 -
44458     -2 -
44464     -11 
44480     -N  
44467     -2 -
44455     -2 -
44461     -N  
44477     -2 -
44479     -8 -
44485     -2 -
44475     -2 -
44486     -N  
44478     -8 -
44473     -2 -
44484     -8 -
44482     -8 -
44487     -2 -
44481     -13 
44497     -9 -
44488     -N  
44491     -13 
44346     -2 -
44347     -2 -
44351     -2 -
44357     -9 -
44356     -9 -
44352     -2 -
44359     -2 -
44361     -8 -
44355     -2 -
44362     -2 -
44350     -2 -
44358     -2 -
44365     -8 -
44360     -2 -
44364     -8 -
44353     -2 -
44366     -8 -
44369     -8 -
44371     -2 -
44374     -8 -
44493     -11 
44495     -8 -
44471     -N  
44500     -1 -
44492     -8 -
44501     -10 
44651     -2 -
44652     -9 -
44654     -2 -
44653     -2 -
44657     -9 -
44658     -9 -
44659     -N  
44655     -8 -
44662     -9 -
44656     -2 -
44666     -2 -
44661     -8 -
44660     -8 -
44669     -2 -
44664     -8 -
44667     -2 -
44663     -2 -
44673     -9 -
44668     -8 -
44674     -2 -
44675     -9 -
44672     -8 -
44680     -9 -
44678     -8 -
44677     -8 -
44676     -8 -
44670     -9 -
44685     -2 -
44679     -8 -
44689     -2 -
44665     -2 -
44684     -2 -
44691     -9 -
44692     -2 -
44688     -2 -
44686     -8 -
44687     -8 -
44682     -8 -
44695     -8 -
44681     -8 -
44697     -2 -
44699     -9 -
44701     -2 -
44683     -2 -
44703     -2 -
44690     -2 -
44693     -8 -
44706     -9 -
44698     -2 -
44708     -2 -
44709     -2 -
44702     -2 -
44696     -8 -
44714     -2 -
44700     -2 -
44694     -N  
44711     -2 -
44715     -8 -
44650     -2 -
44716     -8 -
44720     -8 -
44710     -2 -
44722     -2 -
44723     -2 -
44704     -2 -
44718     -8 -
44713     -8 -
44725     -8 -
44717     -8 -
44721     -2 -
44719     -2 -
44724     -8 -
44732     -8 -
44734     -8 -
44730     -2 -
44727     -2 -
44733     -8 -
44729     -2 -
44705     -8 -
44728     -2 -
44726     -2 -
44739     -8 -
44735     -8 -
44741     -N  
44731     -2 -
44736     -2 -
44707     -N  
44745     -2 -
44746     -2 -
44744     -2 -
44748     -8 -
44749     -8 -
44750     -8 -
44747     -2 -
44743     -8 -
44754     -8 -
44740     -8 -
44742     -2 -
44752     -8 -
44737     -8 -
44738     -8 -
44753     -8 -
44980     -4 -
44981     -N  
44982     -N  
44987     -N  
44984     -N  
44983     -N  
44989     -N  
44990     -N  
44986     -N  
44985     -N  
44992     -N  
44991     -N  
44993     -N  
44998     -7 -
45001     -N  
45002     -7 -
44994     -7 -
45003     -N  
45004     -7 -
45000     -N  
44988     -7 -
44997     -4 -
44999     -N  
45005     -N  
45009     -7 -
45010     -7 -
45007     -N  
45006     -N  
45013     -7 -
45015     -N  
45020     -9 -
45023     -9 -
45021     -4 -
45025     -4 -
45017     -4 -
45026     -4 -
45027     -4 -
45011     -N  
44995     -7 -
45014     -7 -
45016     -7 -
45028     -9 -
45029     -N  
45012     -N  
45030     -9 -
45024     -4 -
45019     -4 -
45008     -N  
45032     -4 -
45042     -9 -
45035     -7 -
45033     -7 -
45045     -N  
45018     -4 -
45022     -4 -
45047     -N  
45048     -4 -
45050     -4 -
45041     -9 -
44996     -4 -
45051     -4 -
45049     -4 -
45034     -N  
45039     -4 -
45052     -9 -
45044     -4 -
45053     -N  
45036     -7 -
45038     -7 -
45031     -4 -
45043     -7 -
45057     -N  
45058     -N  
45064     -N  
45056     -N  
45063     -N  
45066     -N  
45072     -N  
45054     -N  
45059     -N  
45062     -N  
45074     -N  
45046     -N  
45068     -N  
45037     -7 -
45067     -N  
45069     -N  
45075     -N  
45079     -N  
45078     -N  
45083     -N  
45040     -4 -
45070     -N  
45084     -N  
45065     -N  
45085     -N  
45086     -N  
45076     -N  
45087     -N  
45088     -N  
45071     -N  
45061     -N  
45093     -N  
45094     -N  
45060     -N  
45095     -N  
45090     -N  
45082     -N  
45081     -N  
45077     -N  
45077     -N  
45080     -N  
45098     -N  
45096     -N  
45100     -N  
45089     -N  
45105     -N  
45097     -N  
45109     -N  
45114     -N  
45104     -N  
45092     -N  
45113     -N  
45099     -N  
45110     -N  
45115     -N  
45101     -N  
45107     -N  
45120     -N  
45121     -N  
45103     -N  
45108     -N  
45122     -N  
45123     -N  
45091     -N  
45112     -N  
45111     -N  
45116     -N  
45118     -N  
45126     -N  
45124     -N  
45127     -N  
45117     -N  
45106     -N  
45129     -N  
45134     -N  
45133     -N  
45128     -N  
45137     -N  
45130     -N  
45132     -N  
45131     -N  
45141     -N  
45135     -N  
45136     -N  
45138     -N  
45139     -N  
45143     -2 -
45145     -2 -
45125     -6 -
45140     -N  
45144     -8 -
45147     -2 -
45155     -2 -
45150     -8 -
45102     -N  
45156     -8 -
45142     -8 -
45157     -11 
45151     -8 -
45158     -N  
45152     -2 -
45154     -8 -
45159     -8 -
45153     -2 -
45160     -2 -
45168     -8 -
45161     -8 -
45169     -2 -
45167     -11 
45163     -8 -
45165     -2 -
45176     -8 -
45174     -8 -
45181     -11 
45178     -2 -
45146     -8 -
45183     -10 
45172     -8 -
45186     -10 
45173     -8 -
45187     -10 
45188     -10 
45170     -11 
45164     -2 -
45192     -10 
45177     -8 -
45179     -11 
45196     -10 
45193     -2 -
45182     -11 
45175     -2 -
45191     -8 -
45190     -2 -
45198     -2 -
45199     -8 -
45166     -8 -
45200     -8 -
45203     -10 
45194     -11 
45184     -2 -
45208     -2 -
45202     -11 
45197     -8 -
45171     -8 -
45210     -2 -
45206     -8 -
45185     -8 -
45204     -2 -
45055     -N  
45207     -2 -
45222     -N  
45223     -8 -
45211     -11 
45213     -2 -
45189     -2 -
45220     -8 -
45195     -2 -
45180     -2 -
45201     -8 -
45209     -2 -
45218     -11 
45215     -2 -
45226     -8 -
45225     -2 -
45221     -2 -
45217     -8 -
45219     -8 -
45228     -8 -
45214     -8 -
45230     -8 -
45227     -8 -
45205     -2 -
45238     -8 -
45235     -11 
45239     -8 -
45236     -11 
45233     -2 -
45162     -11 
45234     -2 -
45216     -11 
45232     -8 -
45231     -2 -
45240     -8 -
45224     -2 -
45237     -2 -
